{
    "version": "1.0",

    "options" : {
    },

    "devices": {
	"PS" : {
	    "hw-type": "PS",
	    "hw-model": "RigolDP832",
	    "communication": {
		"protocol" : "usb",
		"port" : "/dev/usbtmc0"
	    }
	},
	"PS2": {
	    "hw-type": "PS",
	    "hw-model": "AgilentPs",
	    "communication": {
		"protocol" : "usb",
		"port" : "/dev/ttyUSB1",
		"gpib_addr": 3
	    }
	}
    },
    "channels": {
	"low-voltage" : {
	    "hw-type" : "PS",
	    "device": "PS",
	    "channel" : 1,
	    "program": {
		"maxvoltage": 5
	    }
	},
	"peltier" : {
	    "hw-type" : "PS",
	    "device": "PS",
	    "channel" : 2
	},
	"low-voltage_modA": {
	    "hw-type" : "PS",	    
	    "device": "PS2",
	    "channel" : 1
	},
	"low-voltage_modB": {
	    "hw-type" : "PS",
	    "device": "PS2",
	    "channel" : 2
	},
	"low-voltage_modC": {
	    "hw-type" : "PS",	    
	    "device": "PS2",
	    "channel" : 3
	}
    }	    
}
